{
  "project_info": {
    "project_number": "576310504689",
    "firebase_url": "https://home-energy-6b02c.firebaseio.com",
    "project_id": "home-energy-6b02c",
    "storage_bucket": "home-energy-6b02c.appspot.com"
  },
  "client": [
    {
      "client_info": {
        "mobilesdk_app_id": "1:576310504689:android:bb0d100949790c2c",
        "android_client_info": {
          "package_name": "inspectiondepot.gch"
        }
      },
      "oauth_client": [
        {
          "client_id": "576310504689-1ti7o6ucuo4jtu81bcnnptb5de53k85a.apps.googleusercontent.com",
          "client_type": 1,
          "android_info": {
            "package_name": "inspectiondepot.gch",
            "certificate_hash": "df513cb328fd50e20cf42569c33f1408a3348105"
          }
        },
        {
          "client_id": "576310504689-i1i2os7f9t6jdsprpcpk5s63o62ivllu.apps.googleusercontent.com",
          "client_type": 3
        }
      ],
      "api_key": [
        {
          "current_key": "AIzaSyAJajH5_5k_ItUwFGvjZhwHdLigpeD0Sec"
        }
      ],
      "services": {
        "analytics_service": {
          "status": 1
        },
        "appinvite_service": {
          "status": 2,
          "other_platform_oauth_client": [
            {
              "client_id": "576310504689-i1i2os7f9t6jdsprpcpk5s63o62ivllu.apps.googleusercontent.com",
              "client_type": 3
            }
          ]
        },
        "ads_service": {
          "status": 2
        }
      }
    }
  ],
  "configuration_version": "1"
}